{
    "project_type": "javascript",
    "debugMode": 1,
    "showFPS": true,
    "frameRate": 10000,
    "id": "gameCanvas",
    "renderMode": 0,
    "engineDir": "frameworks/cocos2d-html5",
    "modules": [
        "cocos2d",
        "extensions",
        "external",
        "plugin-facebook",
        "plugin-google"
    ],
    "plugin": {
        "tracker": {
            "appName": "ZPPortal"
        },
        "facebook": {
            "appId": "526742574046446",
            "autoLogAppEvents": true,
            "xfbml": true,
            "version": "v5.0"
        },
        "google": {
            "client_id": "578063972293-4l5n2tt9qk72qb0ge9d9bao72k7qomcg.apps.googleusercontent.com"
        }
    },
    "jsListOrder": [
        "src/data/**/*.js",
        "src/framework/**/*.js",
        "src/gui/screen/**/*.js",
        "src/**/*.js"
    ],
    "jsList": [
        "src/framework/GUI.js",
        "src/framework/BaseScreen.js",
        "src/framework/Utility.js",
        "src/framework/AnimationMgr.js",
        "src/Ship.js",
        "src/MainGame.js"
    ]
}